<svg xmlns="http://www.w3.org/2000/svg" width="24" height="29" fill="none" viewBox="0 0 24 29">
    <path stroke="#BDBDBD" stroke-linecap="round" stroke-linejoin="round" stroke-width="2" d="M3.75 14.219h16.5M12 4.473v19.491"/>
</svg>
