<svg xmlns="http://www.w3.org/2000/svg" width="28" height="28" fill="none" viewBox="0 0 28 28">
    <g fill="#262626" clip-path="url(#clip0)">
        <path d="M23.685 4.138c-.494-.206-1.06-.096-1.441.28l-2.67 2.64C17.891 6.046 15.978 5.514 14 5.514c-1.978 0-3.89.532-5.574 1.544l-2.67-2.64c-.38-.376-.947-.486-1.441-.28-.495.206-.815.686-.815 1.222v9.678c0 4.922 4.005 8.927 8.926 8.927h3.148c4.92 0 8.926-4.005 8.926-8.927V5.36c0-.536-.32-1.016-.815-1.222zm-.86 10.9c0 3.998-3.254 7.251-7.251 7.251h-3.148c-3.997 0-7.25-3.253-7.25-7.25V6.2l2.55 2.52c.286.284.743.323 1.075.094.813-.562 1.68-.976 2.63-1.245v1.006c0 .463.375.838.838.838.462 0 .837-.375.837-.838v-1.33c.615-.06 1.173-.06 1.788 0v1.33c0 .463.375.838.837.838.463 0 .838-.375.838-.838V7.57c.95.269 1.817.683 2.63 1.245.331.23.784.19 1.07-.093l2.556-2.52v8.836z"/>
        <path d="M17.724 16.444c-.452-.098-.898.188-.997.64-.12.552-.618.952-1.183.952-.351 0-.685-.153-.916-.419-.018-.021-.037-.04-.057-.06l1.122-1.112c.403-.402.117-1.081-.452-1.081H12.76c-.57 0-.855.678-.452 1.081l1.117 1.113c-.022.02-.043.039-.063.062-.23.266-.564.417-.915.417-.566 0-1.063-.4-1.184-.952-.098-.452-.544-.739-.996-.64-.453.098-.74.544-.64.996.286 1.316 1.472 2.27 2.82 2.27.554 0 1.09-.159 1.548-.45.459.291.995.45 1.549.45 1.348 0 2.534-.954 2.82-2.27.099-.452-.188-.898-.64-.997zM10.211 14.321c.495 0 .896-.401.896-.896s-.4-.897-.896-.897c-.495 0-.896.402-.896.897s.401.896.896.896zM17.789 14.321c.495 0 .896-.401.896-.896s-.401-.897-.896-.897-.896.402-.896.897.4.896.896.896z"/>
    </g>
    <defs>
        <clipPath id="clip0">
            <path fill="#fff" d="M0 0H21V21H0z" transform="translate(3.5 3.5)"/>
        </clipPath>
    </defs>
</svg>
